<?xml version="1.0" encoding="utf-8"?>
<!-- Generator: Adobe Illustrator 16.0.0, SVG Export Plug-In . SVG Version: 6.00 Build 0)  -->
<!DOCTYPE svg PUBLIC "-//W3C//DTD SVG 1.1//EN" "http://www.w3.org/Graphics/SVG/1.1/DTD/svg11.dtd">
<svg version="1.1" id="Layer_1" xmlns="http://www.w3.org/2000/svg" xmlns:xlink="http://www.w3.org/1999/xlink" x="0px" y="0px"
	 width="1277.729px" height="180.718px" viewBox="0 0 1277.729 180.718" enable-background="new 0 0 1277.729 180.718"
	 xml:space="preserve">
<line fill="none" x1="1090.148" y1="74.288" x2="235.059" y2="74.288"/>
<path fill-rule="evenodd" clip-rule="evenodd" fill="#93AA3B" d="M1034.676,59.013c2.426,0,4.393,1.967,4.393,4.394
	c0,2.426-1.967,4.393-4.393,4.393c-2.427,0-4.393-1.967-4.393-4.393C1030.283,60.979,1032.249,59.013,1034.676,59.013
	L1034.676,59.013z"/>
<polyline fill-rule="evenodd" clip-rule="evenodd" fill="#4BB854" points="-83.652,64.045 1341.978,64.045 1341.978,97.726 
	-83.652,97.726 "/>
<path fill-rule="evenodd" clip-rule="evenodd" fill="none" d="M-18.508,111.706c3.082-0.513,7.195-2.571,10.28-2.571
	s6.681-0.515,11.311,1.029c4.632,1.542,5.139,2.056,11.314,2.571c6.171,0.512,6.171,0.512,11.824,0.512
	c5.654,0,3.598,0.518,9.766-2.054c6.171-2.573,3.089,0,10.801-4.115c7.711-4.112,2.569-5.653,9.767-5.142
	c7.201,0.518,15.428,0,19.025,1.544c3.599,1.541,6.681,0.515,12.854,4.627c6.171,4.112,10.797,6.171,14.914,7.198
	c4.109,1.027,12.027,0.412,16.552,0.821c4.526,0.412,11.52,0,13.576-0.409c2.056-0.412,9.869-2.057,12.752-2.057
	c2.876,0,9.872,0,14.807,1.232c4.934,1.233,13.988,4.524,13.988,4.524s7.401,1.233,11.102,2.057
	c3.704,0.823,6.171,0.411,12.344,1.235c6.167,0.824,9.872,0.412,16.449,1.232c6.587,0.824,11.11,2.062,14.808,3.703
	c3.707,1.647,14.402,5.76,17.276,7.404c2.882,1.645,19.335,15.221,19.335,15.221l-292.46,8.636"/>
<path fill="#754D25" d="M-19.78,180.718h1297.309c35.781-10.525,62.263-42.773,64.161-81.493H-83.94"/>
<path fill-rule="evenodd" clip-rule="evenodd" fill="#009447" d="M-83.94,97.721h1425.63v22.693h-201.194
	c-2.883,0-5.222,2.347-5.222,5.222c0,2.876,2.314,5.197,5.177,5.222h77.125c5.409,0,9.794,4.385,9.794,9.794
	s-4.385,9.795-9.794,9.795h-77.125l0,0h-32.838c-3.576,0-6.475,2.909-6.475,6.476c0,3.565,2.87,6.442,6.419,6.473h-889.96
	c3.55-0.03,6.418-2.907,6.418-6.475c0-3.566-2.898-6.474-6.473-6.474H58.636c-5.41,0-9.794-4.386-9.794-9.795
	s4.384-9.794,9.794-9.794c2.863-0.024,5.176-2.346,5.176-5.222s-2.337-5.222-5.221-5.222l-142.531-0.002"/>
<path fill-rule="evenodd" clip-rule="evenodd" fill="#009447" d="M1267.934,154.901c5.41,0,9.795-4.386,9.795-9.795
	s-4.385-9.794-9.795-9.794h-15.932c-5.41,0-9.795,4.385-9.795,9.794s4.385,9.795,9.795,9.795H1267.934L1267.934,154.901z"/>
<path fill-rule="evenodd" clip-rule="evenodd" fill="#4BB854" d="M533.034,128.639h489.684c5.405,0,9.79,4.385,9.79,9.79
	c0,5.406-4.385,9.79-9.79,9.79H533.034c-5.407,0-9.79-4.384-9.79-9.79S527.627,128.639,533.034,128.639L533.034,128.639z"/>
<path fill-rule="evenodd" clip-rule="evenodd" fill="#009447" d="M1127.144,74.485c4.229,0,7.657,3.428,7.657,7.657
	s-3.429,7.657-7.657,7.657c-4.228,0-7.656-3.428-7.656-7.657S1122.916,74.485,1127.144,74.485L1127.144,74.485z"/>
<polyline fill="none" points="0,214.914 0,35.987 1280,35.987 1280,214.914 "/>
<path fill-rule="evenodd" clip-rule="evenodd" fill="#4BB854" d="M1099.527,47.176c2.685,0,4.861,2.177,4.861,4.861
	c0,2.686-2.177,4.861-4.861,4.861c-2.684,0-4.861-2.176-4.861-4.861C1094.666,49.353,1096.843,47.176,1099.527,47.176
	L1099.527,47.176z"/>
<g>
	<path fill="#009447" d="M1157.768,82.809c0,0,0.054-4.196-5.828-3.698c0,0,3.303-2.969,6.554-0.373c0,0-2.706-6.379-7.943-3.656
		c0,0,4.858-4.395,8.57,1.429c0,0-2.095-3.599,0.403-5.005c0,0-1.312,3.656,1.514,4.191c0,0-0.36-4.258-4.646-4.279
		c0,0,5.368-3.383,6.863,2.962c0,0-1.533-4.058,1.42-5.782c0,0-2.662,4.799,1.066,7.201c0,0-2.067-3.015-0.018-4.51
		c0,0-0.493,4.584,2.818,4.941L1157.768,82.809z"/>
	<path fill="#009447" d="M1230.771,75.233c0,0,9.635-4.233,7.502-15.809c0,0,4.592,5.219,1.851,11.631c0,0,6.735-4.836,0.993-12.189
		c0,0,6.684,3.454,3.554,12.032c0,0,1.421-3.452,4.772-3.147c0,0-5.687,5.076-2.844,10.661c0,0,1.829-1.212,0.914-3.96
		c0,0,3.858,4.569,0.102,8.428c0,0,1.828-1.625,4.569-0.812c0,0-5.136,1.359-3.003,6.721L1230.771,75.233z"/>
	<polygon fill="#562F15" points="1235.271,85.793 1237.64,87.736 1239.027,89.347 1239.941,87.57 1242.276,87.57 1236.794,80.717 	
		"/>
	<polygon fill="#562F15" points="1198.209,90.186 1200.77,89.245 1201.356,91.378 1204.302,89.245 1205.723,79.498 1199.834,74.421 
			"/>
	<polygon fill="#85491F" points="1165.658,20.858 1165.252,44.11 1165.658,57.412 1162.814,71.323 1155.301,79.142 1149.716,87.976 
		1154.225,89.464 1162.043,89.262 1172.498,88.521 1176.726,87.163 1180.076,90.615 1186.574,93.052 1196.889,95.236 
		1201.407,93.511 1200.181,88.889 1202.922,82.797 1201.399,78.329 1204.039,82.797 1203.125,88.483 1203.43,91.631 
		1206.069,91.732 1208.71,89.6 1224.896,90.581 1233.282,88.28 1236.734,90.615 1237.953,88.585 1236.227,83.914 1244.35,89.701 
		1254.098,89.193 1254.098,86.655 1245.771,80.766 1237.445,66.449 1236.023,36.901 1236.1,20.984 1236.1,20.984 	"/>
	<polygon opacity="0.05" fill="#010101" points="1197.16,27.962 1196.093,51.036 1194.994,52.726 1196.093,62.88 1195.942,95.036 
		1186.574,93.052 1180.076,90.615 1176.726,87.163 1172.498,88.521 1162.043,89.262 1154.225,89.464 1149.716,87.976 
		1155.301,79.142 1162.814,71.323 1165.658,57.412 1165.252,44.11 1165.612,20.984 	"/>
	<g>
		<ellipse fill="#935327" cx="1200.856" cy="20.985" rx="35.244" ry="6.977"/>
		<ellipse fill="#EEC99A" cx="1200.77" cy="20.985" rx="33.084" ry="6.21"/>
		<ellipse fill="#D2AA7E" cx="1200.856" cy="20.985" rx="8.336" ry="1.112"/>
		<polygon fill="#935327" points="1226.329,24.928 1223.488,24.014 1224.093,25.776 		"/>
		<path fill="#D2AA7E" d="M1186.171,20.985c0-1.225,7.467-1.955,14.685-1.955c7.219,0,14.686,0.73,14.686,1.955
			c0,1.224-7.467,1.955-14.686,1.955C1193.638,22.94,1186.171,22.209,1186.171,20.985z M1215.022,20.985
			c0-0.834-5.692-1.726-14.167-1.726c-8.474,0-14.166,0.892-14.166,1.726c0,0.833,5.692,1.725,14.166,1.725
			C1209.33,22.71,1215.022,21.818,1215.022,20.985z"/>
		<path fill="#D2AA7E" d="M1179.093,20.985c0-1.723,9.521-3.072,21.677-3.072c12.156,0,21.678,1.35,21.678,3.072
			c0,1.722-9.521,3.071-21.678,3.071C1188.614,24.057,1179.093,22.707,1179.093,20.985z M1221.929,20.985
			c0-1.541-9.689-2.843-21.159-2.843c-11.469,0-21.158,1.302-21.158,2.843c0,1.54,9.689,2.842,21.158,2.842
			C1212.239,23.827,1221.929,22.525,1221.929,20.985z"/>
		<path fill="#D2AA7E" d="M1172.005,20.985c0-2.619,12.942-4.749,28.852-4.749c15.908,0,28.851,2.13,28.851,4.749
			c0,2.618-12.942,4.748-28.851,4.748C1184.947,25.733,1172.005,23.604,1172.005,20.985z M1229.188,20.985
			c0-2.492-12.71-4.52-28.332-4.52c-15.623,0-28.333,2.027-28.333,4.52c0,2.491,12.71,4.518,28.333,4.518
			C1216.479,25.503,1229.188,23.477,1229.188,20.985z"/>
		<polygon fill="#935327" points="1215.394,14.964 1215.148,15.867 1212.572,16.339 1213.247,16.741 1210.854,17.748 
			1213.86,16.785 1213.643,16.356 1216.068,15.997 1216.805,15.218 		"/>
		<polygon fill="#935327" points="1177.619,18.724 1174.07,17.317 1170.277,18.187 		"/>
	</g>
	<polygon fill="#935327" points="1191.055,14.774 1192.679,12.896 1193.847,10.357 1194.37,4.129 1196.197,0 1196.807,5.076 
		1199.047,9.003 1199.134,11.508 1201.207,14.554 	"/>
	<polygon fill="#935327" points="1200.59,14.554 1200.929,12.591 1201.402,10.019 1202.012,8.19 1202.757,9.815 1203.095,12.185 
		1204.652,14.554 	"/>
	<polygon opacity="0.08" fill="#010101" points="1189.116,27.565 1189.578,46.706 1190.189,27.667 	"/>
	<polygon opacity="0.08" fill="#010101" points="1171.071,24.896 1171.396,34.757 1171.612,25.062 	"/>
	<polygon opacity="0.1" fill="#010101" points="1213.83,27.626 1214.387,34.786 1214.387,27.565 	"/>
	<polygon opacity="0.1" fill="#010101" points="1231.729,24.417 1232.128,42.819 1232.527,24.057 	"/>
	<polygon opacity="0.1" fill="#010101" points="1222.984,42.132 1222.984,72.999 1223.488,57.565 	"/>
	<polygon opacity="0.1" fill="#010101" points="1205.723,36.345 1205.723,51.575 1206.374,42.64 	"/>
	<polygon opacity="0.08" fill="#010101" points="1169.951,69.567 1169.951,84.798 1170.603,75.862 	"/>
	<polygon opacity="0.1" fill="#010101" points="1212.946,54.875 1212.946,84.798 1213.598,67.243 	"/>
	<polygon opacity="0.1" fill="#010101" points="1233.528,59.712 1233.528,84.284 1234.18,69.868 	"/>
	<polygon opacity="0.08" fill="#010101" points="1192.194,61.221 1192.194,90.186 1192.846,73.192 	"/>
	<polygon opacity="0.08" fill="#010101" points="1180.136,42.132 1180.136,67.618 1180.947,56.955 	"/>
	<path fill="#009447" d="M1166.938,90.252c0,0,2.233-3.554-3.046-6.194c0,0,4.366-0.812,5.787,3.098c0,0,1.016-6.854-4.874-7.261
		c0,0,6.438-1.218,6.57,5.687c0,0,0.088-4.163,2.953-4.062c0,0-3.024,2.437-0.893,4.366c0,0,1.911-3.821-1.735-6.074
		c0,0,6.345-0.089,4.313,6.105c0,0,0.807-4.262,4.226-4.194c0,0-4.772,2.708-2.844,6.701c0,0-0.192-3.65,2.336-3.858
		c0,0-2.81,3.655-0.169,5.687H1166.938z"/>
	<path fill="#009447" d="M1208.702,91.156c0,0,2.233-3.554-3.046-6.194c0,0,4.366-0.812,5.787,3.098c0,0,1.016-6.854-4.874-7.26
		c0,0,6.438-1.219,6.57,5.686c0,0,0.088-4.163,2.953-4.062c0,0-3.024,2.437-0.893,4.366c0,0,1.911-3.821-1.735-6.073
		c0,0,6.345-0.09,4.313,6.104c0,0,0.807-4.262,4.226-4.194c0,0-4.772,2.708-2.844,6.701c0,0-0.192-3.65,2.336-3.858
		c0,0-2.81,3.655-0.17,5.687H1208.702z"/>
</g>
<g>
	<path fill="#009447" d="M231.19,82.809c0,0,0.054-4.196-5.828-3.698c0,0,3.303-2.969,6.554-0.373c0,0-2.706-6.379-7.943-3.656
		c0,0,4.859-4.395,8.57,1.429c0,0-2.095-3.599,0.403-5.005c0,0-1.311,3.656,1.514,4.191c0,0-0.36-4.258-4.646-4.279
		c0,0,5.368-3.383,6.863,2.962c0,0-1.533-4.058,1.419-5.782c0,0-2.662,4.799,1.067,7.201c0,0-2.067-3.015-0.018-4.51
		c0,0-0.492,4.584,2.819,4.941L231.19,82.809z"/>
	<path fill="#009447" d="M304.194,75.233c0,0,9.635-4.233,7.502-15.809c0,0,4.592,5.219,1.85,11.631c0,0,6.735-4.836,0.993-12.189
		c0,0,6.685,3.454,3.554,12.032c0,0,1.421-3.452,4.772-3.147c0,0-5.686,5.076-2.843,10.661c0,0,1.829-1.212,0.914-3.96
		c0,0,3.858,4.569,0.102,8.428c0,0,1.828-1.625,4.569-0.812c0,0-5.136,1.359-3.003,6.721L304.194,75.233z"/>
	<polygon fill="#562F15" points="308.693,85.793 311.062,87.736 312.45,89.347 313.364,87.57 315.699,87.57 310.216,80.717 	"/>
	<polygon fill="#562F15" points="271.632,90.186 274.192,89.245 274.779,91.378 277.724,89.245 279.146,79.498 273.256,74.421 	"/>
	<polygon fill="#85491F" points="239.081,20.858 238.674,44.11 239.081,57.412 236.237,71.323 228.724,79.142 223.139,87.976 
		227.647,89.464 235.466,89.262 245.921,88.521 250.148,87.163 253.499,90.615 259.997,93.052 270.312,95.236 274.83,93.511 
		273.604,88.889 276.345,82.797 274.822,78.329 277.462,82.797 276.548,88.483 276.853,91.631 279.493,91.732 282.132,89.6 
		298.318,90.581 306.705,88.28 310.157,90.615 311.375,88.585 309.649,83.914 317.772,89.701 327.52,89.193 327.52,86.655 
		319.194,80.766 310.868,66.449 309.446,36.901 309.522,20.984 309.522,20.984 	"/>
	<polygon opacity="0.05" fill="#010101" points="270.583,27.962 269.515,51.036 268.417,52.726 269.515,62.88 269.365,95.036 
		259.997,93.052 253.499,90.615 250.148,87.163 245.921,88.521 235.466,89.262 227.647,89.464 223.139,87.976 228.724,79.142 
		236.237,71.323 239.081,57.412 238.674,44.11 239.035,20.984 	"/>
	<g>
		<ellipse fill="#935327" cx="274.279" cy="20.985" rx="35.244" ry="6.977"/>
		<ellipse fill="#EEC99A" cx="274.192" cy="20.985" rx="33.084" ry="6.21"/>
		<ellipse fill="#D2AA7E" cx="274.279" cy="20.985" rx="8.336" ry="1.112"/>
		<polygon fill="#935327" points="299.752,24.928 296.911,24.014 297.516,25.776 		"/>
		<path fill="#D2AA7E" d="M259.594,20.985c0-1.225,7.467-1.955,14.685-1.955s14.685,0.73,14.685,1.955
			c0,1.224-7.467,1.955-14.685,1.955S259.594,22.209,259.594,20.985z M288.445,20.985c0-0.834-5.692-1.726-14.167-1.726
			s-14.167,0.892-14.167,1.726c0,0.833,5.692,1.725,14.167,1.725S288.445,21.818,288.445,20.985z"/>
		<path fill="#D2AA7E" d="M252.516,20.985c0-1.723,9.521-3.072,21.677-3.072c12.156,0,21.677,1.35,21.677,3.072
			c0,1.722-9.521,3.071-21.677,3.071C262.037,24.057,252.516,22.707,252.516,20.985z M295.352,20.985
			c0-1.541-9.69-2.843-21.159-2.843s-21.159,1.302-21.159,2.843c0,1.54,9.689,2.842,21.159,2.842S295.352,22.525,295.352,20.985z"/>
		<path fill="#D2AA7E" d="M245.428,20.985c0-2.619,12.943-4.749,28.852-4.749c15.908,0,28.851,2.13,28.851,4.749
			c0,2.618-12.943,4.748-28.851,4.748C258.371,25.733,245.428,23.604,245.428,20.985z M302.611,20.985
			c0-2.492-12.709-4.52-28.332-4.52s-28.333,2.027-28.333,4.52c0,2.491,12.71,4.518,28.333,4.518S302.611,23.477,302.611,20.985z"/>
		<polygon fill="#935327" points="288.816,14.964 288.571,15.867 285.995,16.339 286.67,16.741 284.278,17.748 287.283,16.785 
			287.065,16.356 289.491,15.997 290.227,15.218 		"/>
		<polygon fill="#935327" points="251.042,18.724 247.493,17.317 243.7,18.187 		"/>
	</g>
	<polygon opacity="0.08" fill="#010101" points="262.539,27.565 263.001,46.706 263.612,27.667 	"/>
	<polygon opacity="0.08" fill="#010101" points="244.495,24.896 244.818,34.757 245.035,25.062 	"/>
	<polygon opacity="0.1" fill="#010101" points="287.252,27.626 287.81,34.786 287.81,27.565 	"/>
	<polygon opacity="0.1" fill="#010101" points="305.151,24.417 305.551,42.819 305.95,24.057 	"/>
	<polygon opacity="0.1" fill="#010101" points="296.407,42.132 296.407,72.999 296.911,57.565 	"/>
	<polygon opacity="0.1" fill="#010101" points="279.146,36.345 279.146,51.575 279.797,42.64 	"/>
	<polygon opacity="0.08" fill="#010101" points="243.374,69.567 243.374,84.798 244.025,75.862 	"/>
	<polygon opacity="0.1" fill="#010101" points="286.369,54.875 286.369,84.798 287.021,67.243 	"/>
	<polygon opacity="0.1" fill="#010101" points="306.951,59.712 306.951,84.284 307.603,69.868 	"/>
	<polygon opacity="0.08" fill="#010101" points="265.617,61.221 265.617,90.186 266.269,73.192 	"/>
	<polygon opacity="0.08" fill="#010101" points="253.558,42.132 253.558,67.618 254.371,56.955 	"/>
	<path fill="#009447" d="M240.36,90.252c0,0,2.233-3.554-3.046-6.194c0,0,4.366-0.812,5.788,3.098c0,0,1.016-6.854-4.874-7.261
		c0,0,6.438-1.218,6.57,5.687c0,0,0.088-4.163,2.953-4.062c0,0-3.024,2.437-0.892,4.366c0,0,1.911-3.821-1.735-6.074
		c0,0,6.344-0.089,4.313,6.105c0,0,0.806-4.262,4.225-4.194c0,0-4.772,2.708-2.843,6.701c0,0-0.192-3.65,2.335-3.858
		c0,0-2.809,3.655-0.169,5.687H240.36z"/>
	<path fill="#009447" d="M282.125,91.156c0,0,2.234-3.554-3.046-6.194c0,0,4.366-0.812,5.788,3.098c0,0,1.016-6.854-4.874-7.26
		c0,0,6.438-1.219,6.57,5.686c0,0,0.088-4.163,2.953-4.062c0,0-3.024,2.437-0.892,4.366c0,0,1.911-3.821-1.735-6.073
		c0,0,6.344-0.09,4.313,6.104c0,0,0.807-4.262,4.225-4.194c0,0-4.772,2.708-2.843,6.701c0,0-0.192-3.65,2.335-3.858
		c0,0-2.809,3.655-0.169,5.687H282.125z"/>
</g>
<g>
	<path fill="#009447" d="M108.827,82.809c0,0,0.054-4.196-5.828-3.698c0,0,3.302-2.969,6.553-0.373c0,0-2.706-6.379-7.943-3.656
		c0,0,4.859-4.395,8.57,1.429c0,0-2.095-3.599,0.403-5.005c0,0-1.311,3.656,1.515,4.191c0,0-0.361-4.258-4.646-4.279
		c0,0,5.368-3.383,6.863,2.962c0,0-1.533-4.058,1.419-5.782c0,0-2.662,4.799,1.067,7.201c0,0-2.067-3.015-0.018-4.51
		c0,0-0.492,4.584,2.819,4.941L108.827,82.809z"/>
	<path fill="#009447" d="M181.832,75.233c0,0,9.635-4.233,7.502-15.809c0,0,4.592,5.219,1.85,11.631c0,0,6.735-4.836,0.993-12.189
		c0,0,6.685,3.454,3.554,12.032c0,0,1.421-3.452,4.772-3.147c0,0-5.686,5.076-2.843,10.661c0,0,1.828-1.212,0.914-3.96
		c0,0,3.858,4.569,0.102,8.428c0,0,1.828-1.625,4.569-0.812c0,0-5.136,1.359-3.003,6.721L181.832,75.233z"/>
	<polygon fill="#562F15" points="186.331,85.793 188.699,87.736 190.087,89.347 191.001,87.57 193.336,87.57 187.854,80.717 	"/>
	<polygon fill="#562F15" points="149.269,90.186 151.83,89.245 152.417,91.378 155.361,89.245 156.783,79.498 150.894,74.421 	"/>
	<polygon fill="#85491F" points="116.718,20.858 116.312,44.11 116.718,57.412 113.875,71.323 106.361,79.142 100.776,87.976 
		105.285,89.464 113.104,89.262 123.558,88.521 127.785,87.163 131.136,90.615 137.634,93.052 147.949,95.236 152.467,93.511 
		151.241,88.889 153.982,82.797 152.459,78.329 155.099,82.797 154.185,88.483 154.49,91.631 157.13,91.732 159.77,89.6 
		175.955,90.581 184.342,88.28 187.794,90.615 189.013,88.585 187.287,83.914 195.41,89.701 205.157,89.193 205.157,86.655 
		196.831,80.766 188.505,66.449 187.083,36.901 187.16,20.984 187.16,20.984 	"/>
	<polygon opacity="0.05" fill="#010101" points="148.22,27.962 147.152,51.036 146.054,52.726 147.152,62.88 147.002,95.036 
		137.634,93.052 131.136,90.615 127.785,87.163 123.558,88.521 113.104,89.262 105.285,89.464 100.776,87.976 106.361,79.142 
		113.875,71.323 116.718,57.412 116.312,44.11 116.672,20.984 	"/>
	<g>
		<ellipse fill="#935327" cx="151.916" cy="20.985" rx="35.244" ry="6.977"/>
		<ellipse fill="#EEC99A" cx="151.83" cy="20.985" rx="33.084" ry="6.21"/>
		<ellipse fill="#D2AA7E" cx="151.916" cy="20.985" rx="8.336" ry="1.112"/>
		<polygon fill="#935327" points="177.389,24.928 174.548,24.014 175.153,25.776 		"/>
		<path fill="#D2AA7E" d="M137.231,20.985c0-1.225,7.467-1.955,14.685-1.955s14.685,0.73,14.685,1.955
			c0,1.224-7.467,1.955-14.685,1.955S137.231,22.209,137.231,20.985z M166.083,20.985c0-0.834-5.692-1.726-14.167-1.726
			s-14.167,0.892-14.167,1.726c0,0.833,5.692,1.725,14.167,1.725S166.083,21.818,166.083,20.985z"/>
		<path fill="#D2AA7E" d="M130.153,20.985c0-1.723,9.521-3.072,21.677-3.072c12.156,0,21.677,1.35,21.677,3.072
			c0,1.722-9.521,3.071-21.677,3.071C139.674,24.057,130.153,22.707,130.153,20.985z M172.989,20.985
			c0-1.541-9.69-2.843-21.159-2.843s-21.159,1.302-21.159,2.843c0,1.54,9.689,2.842,21.159,2.842S172.989,22.525,172.989,20.985z"/>
		<path fill="#D2AA7E" d="M123.065,20.985c0-2.619,12.943-4.749,28.852-4.749c15.908,0,28.851,2.13,28.851,4.749
			c0,2.618-12.943,4.748-28.851,4.748C136.008,25.733,123.065,23.604,123.065,20.985z M180.249,20.985
			c0-2.492-12.709-4.52-28.332-4.52s-28.333,2.027-28.333,4.52c0,2.491,12.71,4.518,28.333,4.518S180.249,23.477,180.249,20.985z"/>
		<polygon fill="#935327" points="166.454,14.964 166.208,15.867 163.632,16.339 164.307,16.741 161.915,17.748 164.92,16.785 
			164.703,16.356 167.128,15.997 167.864,15.218 		"/>
		<polygon fill="#935327" points="128.679,18.724 125.13,17.317 121.337,18.187 		"/>
	</g>
	<polygon fill="#935327" points="142.114,14.774 143.739,12.896 144.907,10.357 145.43,4.129 147.257,0 147.867,5.076 
		150.107,9.003 150.193,11.508 152.267,14.554 	"/>
	<polygon fill="#935327" points="151.65,14.554 151.989,12.591 152.462,10.019 153.072,8.19 153.816,9.815 154.155,12.185 
		155.712,14.554 	"/>
	<polygon opacity="0.08" fill="#010101" points="140.176,27.565 140.638,46.706 141.249,27.667 	"/>
	<polygon opacity="0.08" fill="#010101" points="122.132,24.896 122.456,34.757 122.672,25.062 	"/>
	<polygon opacity="0.1" fill="#010101" points="164.89,27.626 165.447,34.786 165.447,27.565 	"/>
	<polygon opacity="0.1" fill="#010101" points="182.789,24.417 183.188,42.819 183.587,24.057 	"/>
	<polygon opacity="0.1" fill="#010101" points="174.044,42.132 174.044,72.999 174.548,57.565 	"/>
	<polygon opacity="0.1" fill="#010101" points="156.783,36.345 156.783,51.575 157.435,42.64 	"/>
	<polygon opacity="0.08" fill="#010101" points="121.011,69.567 121.011,84.798 121.663,75.862 	"/>
	<polygon opacity="0.1" fill="#010101" points="164.006,54.875 164.006,84.798 164.658,67.243 	"/>
	<polygon opacity="0.1" fill="#010101" points="184.588,59.712 184.588,84.284 185.24,69.868 	"/>
	<polygon opacity="0.08" fill="#010101" points="143.254,61.221 143.254,90.186 143.906,73.192 	"/>
	<polygon opacity="0.08" fill="#010101" points="131.195,42.132 131.195,67.618 132.008,56.955 	"/>
	<path fill="#009447" d="M117.998,90.252c0,0,2.234-3.554-3.046-6.194c0,0,4.366-0.812,5.788,3.098c0,0,1.016-6.854-4.874-7.261
		c0,0,6.438-1.218,6.569,5.687c0,0,0.088-4.163,2.953-4.062c0,0-3.024,2.437-0.892,4.366c0,0,1.911-3.821-1.735-6.074
		c0,0,6.344-0.089,4.313,6.105c0,0,0.806-4.262,4.225-4.194c0,0-4.772,2.708-2.843,6.701c0,0-0.193-3.65,2.335-3.858
		c0,0-2.809,3.655-0.169,5.687H117.998z"/>
	<path fill="#009447" d="M159.762,91.156c0,0,2.234-3.554-3.046-6.194c0,0,4.366-0.812,5.788,3.098c0,0,1.015-6.854-4.874-7.26
		c0,0,6.438-1.219,6.569,5.686c0,0,0.088-4.163,2.953-4.062c0,0-3.024,2.437-0.892,4.366c0,0,1.911-3.821-1.735-6.073
		c0,0,6.344-0.09,4.313,6.104c0,0,0.807-4.262,4.225-4.194c0,0-4.772,2.708-2.843,6.701c0,0-0.192-3.65,2.335-3.858
		c0,0-2.809,3.655-0.169,5.687H159.762z"/>
</g>
<g>
	<path fill="#009447" d="M28.499,84.312c0,0,0.054-3.69-5.828-3.252c0,0,3.303-2.609,6.553-0.328c0,0-2.706-5.607-7.943-3.214
		c0,0,4.859-3.864,8.57,1.256c0,0-2.094-3.163,0.403-4.4c0,0-1.311,3.215,1.515,3.685c0,0-0.361-3.742-4.646-3.762
		c0,0,5.368-2.974,6.863,2.604c0,0-1.533-3.566,1.42-5.082c0,0-2.662,4.218,1.066,6.33c0,0-2.067-2.65-0.018-3.965
		c0,0-0.492,4.03,2.819,4.344L28.499,84.312z"/>
	<path fill="#009447" d="M101.504,77.651c0,0,9.634-3.722,7.502-13.898c0,0,4.592,4.589,1.85,10.226c0,0,6.735-4.251,0.993-10.716
		c0,0,6.684,3.036,3.554,10.577c0,0,1.421-3.034,4.772-2.767c0,0-5.686,4.463-2.843,9.372c0,0,1.828-1.065,0.914-3.481
		c0,0,3.858,4.018,0.102,7.409c0,0,1.828-1.428,4.569-0.714c0,0-5.136,1.195-3.003,5.909L101.504,77.651z"/>
	<polygon fill="#562F15" points="106.002,86.935 108.371,88.644 109.759,90.059 110.673,88.497 113.008,88.497 107.525,82.472 	"/>
	<polygon fill="#562F15" points="68.941,90.796 71.501,89.97 72.089,91.845 75.033,89.97 76.455,81.4 70.565,76.938 	"/>
	<polygon fill="#85491F" points="36.39,45.647 35.983,60.63 36.39,61.984 33.546,74.214 26.033,81.087 20.448,88.853 24.957,90.162 
		32.775,89.983 43.23,89.333 47.457,88.139 50.808,91.174 57.307,93.316 67.621,95.236 72.14,93.719 70.913,89.656 73.654,84.301 
		72.131,80.373 74.771,84.301 73.857,89.3 74.162,92.066 76.802,92.155 79.442,90.281 95.627,91.144 104.014,89.121 107.466,91.174 
		108.685,89.389 106.958,85.282 115.082,90.37 124.829,89.924 124.829,87.692 116.503,82.515 108.177,69.929 106.755,54.292 
		106.832,45.759 106.832,45.759 	"/>
	<polygon opacity="0.05" fill="#010101" points="67.892,51.892 66.824,66.718 65.726,68.203 66.824,66.791 66.674,95.06 
		57.307,93.316 50.808,91.174 47.457,88.139 43.23,89.333 32.775,89.983 24.957,90.162 20.448,88.853 26.033,81.087 33.546,74.214 
		36.39,61.984 35.983,60.63 36.344,45.759 	"/>
	<g>
		<ellipse fill="#935327" cx="71.588" cy="45.758" rx="35.244" ry="6.133"/>
		<ellipse fill="#EEC99A" cx="71.501" cy="45.758" rx="33.084" ry="5.459"/>
		<ellipse fill="#D2AA7E" cx="71.588" cy="45.758" rx="8.336" ry="0.977"/>
		<polygon fill="#935327" points="97.061,49.226 94.22,48.421 94.825,49.971 		"/>
		<path fill="#D2AA7E" d="M56.903,45.759c0-1.076,7.467-1.719,14.685-1.719c7.219,0,14.685,0.643,14.685,1.719
			c0,1.075-7.466,1.719-14.685,1.719C64.37,47.478,56.903,46.834,56.903,45.759z M85.755,45.759c0-0.732-5.693-1.517-14.167-1.517
			s-14.167,0.784-14.167,1.517s5.692,1.517,14.167,1.517S85.755,46.491,85.755,45.759z"/>
		<path fill="#D2AA7E" d="M49.825,45.759c0-1.515,9.521-2.701,21.677-2.701c12.155,0,21.677,1.187,21.677,2.701
			c0,1.514-9.521,2.7-21.677,2.7C59.346,48.459,49.825,47.272,49.825,45.759z M92.661,45.759c0-1.354-9.69-2.499-21.159-2.499
			c-11.469,0-21.159,1.145-21.159,2.499c0,1.354,9.69,2.498,21.159,2.498C82.971,48.257,92.661,47.112,92.661,45.759z"/>
		<path fill="#D2AA7E" d="M42.737,45.759c0-2.303,12.942-4.175,28.851-4.175c15.908,0,28.851,1.872,28.851,4.175
			c0,2.302-12.943,4.174-28.851,4.174C55.68,49.933,42.737,48.061,42.737,45.759z M99.92,45.759c0-2.19-12.709-3.973-28.332-3.973
			s-28.333,1.782-28.333,3.973s12.71,3.973,28.333,3.973S99.92,47.949,99.92,45.759z"/>
		<polygon fill="#935327" points="86.125,40.466 85.88,41.26 83.304,41.675 83.979,42.028 81.587,42.913 84.592,42.066 
			84.375,41.689 86.8,41.373 87.536,40.688 		"/>
		<polygon fill="#935327" points="48.352,43.771 44.802,42.534 41.009,43.298 		"/>
	</g>
	<polygon opacity="0.08" fill="#010101" points="59.848,51.544 60.311,62.911 60.921,51.633 	"/>
	<polygon opacity="0.08" fill="#010101" points="41.804,49.196 42.127,52.405 42.344,49.343 	"/>
	<polygon opacity="0.1" fill="#010101" points="84.562,51.597 85.119,52.433 85.119,51.544 	"/>
	<polygon opacity="0.1" fill="#010101" points="102.46,48.776 102.86,59.493 103.26,48.459 	"/>
	<polygon opacity="0.1" fill="#010101" points="93.716,58.89 93.716,75.688 94.22,62.119 	"/>
	<polygon opacity="0.1" fill="#010101" points="76.455,53.802 76.455,67.191 77.106,59.336 	"/>
	<polygon opacity="0.08" fill="#010101" points="40.683,72.67 40.683,86.06 41.335,78.204 	"/>
	<polygon opacity="0.1" fill="#010101" points="83.678,70.093 83.678,86.06 84.33,70.627 	"/>
	<polygon opacity="0.1" fill="#010101" points="104.26,64.006 104.26,85.607 104.912,72.935 	"/>
	<polygon opacity="0.08" fill="#010101" points="62.926,65.333 62.926,90.796 63.578,75.857 	"/>
	<polygon opacity="0.08" fill="#010101" points="50.867,58.89 50.867,70.956 51.68,61.583 	"/>
	<path fill="#009447" d="M37.669,90.854c0,0,2.234-3.125-3.046-5.445c0,0,4.366-0.714,5.788,2.723c0,0,1.015-6.025-4.874-6.383
		c0,0,6.438-1.071,6.57,4.999c0,0,0.088-3.66,2.953-3.57c0,0-3.024,2.142-0.892,3.838c0,0,1.911-3.359-1.735-5.339
		c0,0,6.344-0.079,4.313,5.366c0,0,0.806-3.746,4.225-3.687c0,0-4.772,2.38-2.843,5.891c0,0-0.193-3.209,2.335-3.392
		c0,0-2.809,3.214-0.169,4.999H37.669z"/>
	<path fill="#009447" d="M79.434,91.649c0,0,2.234-3.124-3.046-5.445c0,0,4.366-0.714,5.788,2.723c0,0,1.016-6.025-4.874-6.382
		c0,0,6.438-1.071,6.57,4.998c0,0,0.088-3.659,2.953-3.57c0,0-3.024,2.143-0.892,3.839c0,0,1.911-3.359-1.735-5.34
		c0,0,6.345-0.078,4.314,5.366c0,0,0.806-3.746,4.225-3.687c0,0-4.772,2.38-2.843,5.892c0,0-0.193-3.21,2.335-3.393
		c0,0-2.809,3.214-0.169,4.999H79.434z"/>
</g>
<g>
	<path fill="#009447" d="M188.739,129.226c0,0,0.061-4.756-6.604-4.191c0,0,3.743-3.363,7.427-0.423c0,0-3.066-7.228-9.001-4.143
		c0,0,5.506-4.98,9.712,1.619c0,0-2.374-4.078,0.457-5.672c0,0-1.485,4.143,1.716,4.749c0,0-0.409-4.824-5.265-4.85
		c0,0,6.083-3.833,7.777,3.356c0,0-1.737-4.598,1.609-6.551c0,0-3.016,5.437,1.208,8.16c0,0-2.342-3.417-0.021-5.111
		c0,0-0.558,5.194,3.195,5.6L188.739,129.226z"/>
	<path fill="#009447" d="M271.467,120.641c0,0,10.918-4.797,8.501-17.915c0,0,5.204,5.915,2.097,13.182c0,0,7.632-5.48,1.125-13.814
		c0,0,7.574,3.915,4.027,13.636c0,0,1.611-3.912,5.408-3.567c0,0-6.444,5.754-3.222,12.082c0,0,2.072-1.373,1.035-4.487
		c0,0,4.373,5.178,0.115,9.55c0,0,2.071-1.841,5.178-0.92c0,0-5.82,1.54-3.403,7.616L271.467,120.641z"/>
	<polygon fill="#562F15" points="276.565,132.607 279.25,134.81 280.823,136.635 281.858,134.621 284.505,134.621 278.292,126.854 	
		"/>
	<polygon fill="#562F15" points="234.567,137.584 237.469,136.52 238.134,138.936 241.471,136.52 243.082,125.474 236.408,119.721 	
		"/>
	<polygon fill="#85491F" points="197.68,77.601 197.22,85.373 197.68,100.446 194.458,116.21 185.943,125.069 179.615,135.08 
		184.724,136.768 193.584,136.538 205.432,135.699 210.222,134.159 214.019,138.071 221.383,140.833 233.072,143.309 
		238.192,141.353 236.802,136.115 239.908,129.212 238.182,124.149 241.174,129.212 240.138,135.655 240.483,139.223 
		243.475,139.337 246.467,136.921 264.808,138.033 274.312,135.425 278.224,138.071 279.605,135.771 277.649,130.478 
		286.854,137.036 297.9,136.461 297.9,133.584 288.465,126.91 279.03,110.687 277.419,95.78 277.505,77.743 277.505,77.743 	"/>
	<polygon opacity="0.05" fill="#010101" points="233.378,85.65 232.169,93.221 230.924,95.136 232.169,106.642 231.999,143.081 
		221.383,140.833 214.019,138.071 210.222,134.159 205.432,135.699 193.584,136.538 184.724,136.768 179.615,135.08 
		185.943,125.069 194.458,116.21 197.68,100.446 197.22,85.373 197.629,77.743 	"/>
	<g>
		<ellipse fill="#935327" cx="237.567" cy="77.744" rx="39.938" ry="7.907"/>
		<ellipse fill="#EEC99A" cx="237.469" cy="77.744" rx="37.491" ry="7.038"/>
		<ellipse fill="#D2AA7E" cx="237.567" cy="77.743" rx="9.446" ry="1.26"/>
		<polygon fill="#935327" points="266.433,82.212 263.214,81.176 263.899,83.174 		"/>
		<path fill="#D2AA7E" d="M220.926,77.743c0-1.386,8.461-2.215,16.641-2.215c8.18,0,16.641,0.829,16.641,2.215
			c0,1.387-8.461,2.216-16.641,2.216C229.387,79.959,220.926,79.13,220.926,77.743z M253.621,77.743
			c0-0.943-6.451-1.954-16.054-1.954c-9.603,0-16.054,1.011-16.054,1.954c0,0.944,6.451,1.955,16.054,1.955
			C247.17,79.698,253.621,78.688,253.621,77.743z"/>
		<path fill="#D2AA7E" d="M212.905,77.743c0-1.951,10.79-3.48,24.564-3.48s24.564,1.529,24.564,3.48
			c0,1.952-10.79,3.481-24.564,3.481S212.905,79.695,212.905,77.743z M261.446,77.743c0-1.745-10.98-3.22-23.977-3.22
			s-23.977,1.475-23.977,3.22c0,1.746,10.98,3.221,23.977,3.221S261.446,79.489,261.446,77.743z"/>
		<path fill="#D2AA7E" d="M204.873,77.743c0-2.967,14.667-5.381,32.694-5.381c18.027,0,32.693,2.414,32.693,5.381
			c0,2.968-14.667,5.382-32.693,5.382C219.54,83.125,204.873,80.711,204.873,77.743z M269.674,77.743
			c0-2.823-14.403-5.12-32.106-5.12s-32.107,2.297-32.107,5.12c0,2.824,14.403,5.121,32.107,5.121S269.674,80.567,269.674,77.743z"
			/>
		<polygon fill="#935327" points="254.041,70.921 253.763,71.944 250.844,72.479 251.608,72.936 248.897,74.075 252.303,72.984 
			252.057,72.498 254.806,72.091 255.64,71.208 		"/>
		<polygon fill="#935327" points="211.235,75.181 207.213,73.588 202.915,74.572 		"/>
	</g>
	<polygon opacity="0.08" fill="#010101" points="224.264,85.201 224.787,88.313 225.479,85.316 	"/>
	<polygon opacity="0.08" fill="#010101" points="203.815,82.175 204.182,93.35 204.427,82.364 	"/>
	<polygon opacity="0.1" fill="#010101" points="252.269,85.27 252.9,93.384 252.9,85.201 	"/>
	<polygon opacity="0.1" fill="#010101" points="272.552,81.634 273.004,83.909 273.458,81.225 	"/>
	<polygon opacity="0.1" fill="#010101" points="262.643,83.13 262.643,118.109 263.214,100.62 	"/>
	<polygon opacity="0.1" fill="#010101" points="243.082,95.149 243.082,93.831 243.82,83.706 	"/>
	<polygon opacity="0.08" fill="#010101" points="202.545,114.22 202.545,131.479 203.284,121.354 	"/>
	<polygon opacity="0.1" fill="#010101" points="251.268,97.57 251.268,131.479 252.006,111.586 	"/>
	<polygon opacity="0.1" fill="#010101" points="274.591,103.052 274.591,130.896 275.33,114.561 	"/>
	<polygon opacity="0.08" fill="#010101" points="227.752,104.762 227.752,137.584 228.49,118.329 	"/>
	<polygon opacity="0.08" fill="#010101" points="214.086,83.13 214.086,112.011 215.007,99.929 	"/>
	<path fill="#009447" d="M199.13,137.659c0,0,2.531-4.026-3.452-7.019c0,0,4.948-0.92,6.559,3.51c0,0,1.151-7.767-5.523-8.228
		c0,0,7.296-1.38,7.445,6.444c0,0,0.1-4.718,3.346-4.603c0,0-3.427,2.761-1.011,4.947c0,0,2.166-4.33-1.966-6.883
		c0,0,7.189-0.101,4.888,6.918c0,0,0.914-4.829,4.788-4.753c0,0-5.408,3.068-3.222,7.595c0,0-0.218-4.138,2.646-4.373
		c0,0-3.184,4.143-0.192,6.443H199.13z"/>
	<path fill="#009447" d="M246.458,138.685c0,0,2.531-4.027-3.452-7.019c0,0,4.948-0.921,6.559,3.509c0,0,1.151-7.767-5.523-8.227
		c0,0,7.296-1.381,7.445,6.443c0,0,0.1-4.717,3.347-4.603c0,0-3.427,2.762-1.011,4.948c0,0,2.166-4.33-1.966-6.883
		c0,0,7.189-0.102,4.888,6.918c0,0,0.914-4.83,4.788-4.753c0,0-5.408,3.068-3.222,7.594c0,0-0.218-4.137,2.646-4.372
		c0,0-3.184,4.143-0.192,6.443H246.458z"/>
</g>
<g>
	<path fill="#009447" d="M984.657,143.826c0,0,0.062-4.757-6.604-4.191c0,0,3.743-3.364,7.426-0.423c0,0-3.066-7.229-9.001-4.143
		c0,0,5.506-4.981,9.712,1.619c0,0-2.374-4.078,0.457-5.673c0,0-1.485,4.144,1.716,4.75c0,0-0.409-4.824-5.266-4.85
		c0,0,6.083-3.833,7.777,3.356c0,0-1.737-4.598,1.608-6.552c0,0-3.016,5.438,1.209,8.161c0,0-2.343-3.417-0.021-5.111
		c0,0-0.558,5.194,3.195,5.6L984.657,143.826z"/>
	<path fill="#009447" d="M1067.386,135.241c0,0,10.917-4.798,8.501-17.915c0,0,5.204,5.915,2.097,13.182
		c0,0,7.632-5.48,1.125-13.814c0,0,7.575,3.914,4.027,13.636c0,0,1.611-3.912,5.408-3.567c0,0-6.443,5.753-3.222,12.082
		c0,0,2.072-1.374,1.036-4.487c0,0,4.372,5.178,0.115,9.55c0,0,2.071-1.841,5.178-0.921c0,0-5.82,1.541-3.404,7.617
		L1067.386,135.241z"/>
	<polygon fill="#562F15" points="1072.483,147.208 1075.168,149.41 1076.741,151.235 1077.776,149.222 1080.423,149.222 
		1074.209,141.454 	"/>
	<polygon fill="#562F15" points="1030.485,152.185 1033.387,151.12 1034.053,153.536 1037.389,151.12 1039,140.074 1032.327,134.32 
			"/>
	<polygon fill="#85491F" points="993.598,92.201 993.138,99.974 993.598,115.046 990.376,130.81 981.862,139.67 975.533,149.681 
		980.643,151.368 989.502,151.138 1001.35,150.3 1006.14,148.76 1009.937,152.672 1017.301,155.434 1028.99,157.908 
		1034.11,155.952 1032.72,150.716 1035.826,143.812 1034.101,138.749 1037.092,143.812 1036.057,150.256 1036.402,153.823 
		1039.393,153.938 1042.385,151.521 1060.727,152.634 1070.23,150.025 1074.143,152.672 1075.523,150.371 1073.567,145.078 
		1082.772,151.637 1093.818,151.062 1093.818,148.185 1084.383,141.511 1074.948,125.287 1073.337,110.381 1073.423,92.344 
		1073.423,92.344 	"/>
	<polygon opacity="0.05" fill="#010101" points="1029.296,100.25 1028.087,107.821 1026.842,109.735 1028.087,121.242 
		1027.917,157.682 1017.301,155.434 1009.937,152.672 1006.14,148.76 1001.35,150.3 989.502,151.138 980.643,151.368 
		975.533,149.681 981.862,139.67 990.376,130.81 993.598,115.046 993.138,99.974 993.547,92.344 	"/>
	<g>
		<ellipse fill="#935327" cx="1033.485" cy="92.344" rx="39.938" ry="7.906"/>
		<ellipse fill="#EEC99A" cx="1033.387" cy="92.344" rx="37.491" ry="7.038"/>
		<ellipse fill="#D2AA7E" cx="1033.485" cy="92.344" rx="9.446" ry="1.26"/>
		<polygon fill="#935327" points="1062.351,96.812 1059.132,95.776 1059.817,97.774 		"/>
		<path fill="#D2AA7E" d="M1016.844,92.344c0-1.387,8.461-2.215,16.641-2.215c8.18,0,16.641,0.828,16.641,2.215
			s-8.461,2.216-16.641,2.216C1025.305,94.56,1016.844,93.73,1016.844,92.344z M1049.539,92.344c0-0.943-6.451-1.954-16.054-1.954
			c-9.603,0-16.053,1.011-16.053,1.954c0,0.944,6.451,1.955,16.053,1.955C1043.088,94.299,1049.539,93.288,1049.539,92.344z"/>
		<path fill="#D2AA7E" d="M1008.823,92.344c0-1.952,10.79-3.48,24.564-3.48c13.775,0,24.565,1.528,24.565,3.48
			s-10.79,3.481-24.565,3.481C1019.613,95.825,1008.823,94.296,1008.823,92.344z M1057.365,92.344c0-1.745-10.98-3.22-23.978-3.22
			c-12.997,0-23.977,1.475-23.977,3.22c0,1.746,10.98,3.221,23.977,3.221C1046.384,95.564,1057.365,94.09,1057.365,92.344z"/>
		<path fill="#D2AA7E" d="M1000.791,92.344c0-2.967,14.667-5.381,32.694-5.381c18.027,0,32.694,2.414,32.694,5.381
			c0,2.968-14.667,5.382-32.694,5.382C1015.458,97.726,1000.791,95.312,1000.791,92.344z M1065.592,92.344
			c0-2.823-14.403-5.12-32.106-5.12s-32.107,2.297-32.107,5.12c0,2.824,14.403,5.121,32.107,5.121S1065.592,95.168,1065.592,92.344z
			"/>
		<polygon fill="#935327" points="1049.959,85.521 1049.681,86.545 1046.762,87.079 1047.526,87.536 1044.816,88.676 
			1048.222,87.585 1047.975,87.099 1050.724,86.691 1051.558,85.809 		"/>
		<polygon fill="#935327" points="1007.153,89.781 1003.131,88.188 998.833,89.173 		"/>
	</g>
	<polygon opacity="0.08" fill="#010101" points="1020.182,99.802 1020.705,102.914 1021.397,99.916 	"/>
	<polygon opacity="0.08" fill="#010101" points="999.733,96.775 1000.101,107.95 1000.346,96.965 	"/>
	<polygon opacity="0.1" fill="#010101" points="1048.187,99.87 1048.818,107.984 1048.818,99.802 	"/>
	<polygon opacity="0.1" fill="#010101" points="1068.47,96.233 1068.923,98.509 1069.375,95.825 	"/>
	<polygon opacity="0.1" fill="#010101" points="1058.561,97.73 1058.561,132.71 1059.132,115.22 	"/>
	<polygon opacity="0.1" fill="#010101" points="1039,109.749 1039,108.432 1039.738,98.306 	"/>
	<polygon opacity="0.08" fill="#010101" points="998.464,128.82 998.464,146.079 999.202,135.954 	"/>
	<polygon opacity="0.1" fill="#010101" points="1047.186,112.171 1047.186,146.079 1047.924,126.187 	"/>
	<polygon opacity="0.1" fill="#010101" points="1070.509,117.651 1070.509,145.497 1071.248,129.161 	"/>
	<polygon opacity="0.08" fill="#010101" points="1023.67,119.362 1023.67,152.185 1024.408,132.929 	"/>
	<polygon opacity="0.08" fill="#010101" points="1010.004,97.73 1010.004,126.611 1010.925,114.528 	"/>
	<path fill="#009447" d="M995.048,152.26c0,0,2.531-4.027-3.452-7.019c0,0,4.947-0.921,6.559,3.51c0,0,1.15-7.768-5.523-8.228
		c0,0,7.296-1.381,7.445,6.443c0,0,0.1-4.718,3.346-4.603c0,0-3.427,2.762-1.011,4.948c0,0,2.166-4.33-1.966-6.883
		c0,0,7.189-0.101,4.888,6.918c0,0,0.914-4.83,4.788-4.753c0,0-5.408,3.068-3.222,7.594c0,0-0.218-4.137,2.646-4.372
		c0,0-3.184,4.143-0.192,6.443H995.048z"/>
	<path fill="#009447" d="M1042.376,153.285c0,0,2.532-4.027-3.452-7.019c0,0,4.948-0.921,6.559,3.509c0,0,1.15-7.767-5.523-8.227
		c0,0,7.295-1.381,7.445,6.443c0,0,0.1-4.718,3.346-4.603c0,0-3.427,2.762-1.011,4.947c0,0,2.166-4.33-1.967-6.882
		c0,0,7.189-0.102,4.888,6.917c0,0,0.914-4.829,4.788-4.752c0,0-5.408,3.068-3.222,7.594c0,0-0.218-4.137,2.646-4.372
		c0,0-3.184,4.142-0.192,6.443H1042.376z"/>
</g>
<g>
	<path fill="#009447" d="M89.205,129.226c0,0,0.061-4.756-6.604-4.191c0,0,3.743-3.363,7.426-0.423c0,0-3.066-7.228-9.001-4.143
		c0,0,5.507-4.98,9.712,1.619c0,0-2.374-4.078,0.457-5.672c0,0-1.485,4.143,1.716,4.749c0,0-0.409-4.824-5.265-4.85
		c0,0,6.083-3.833,7.777,3.356c0,0-1.737-4.598,1.609-6.551c0,0-3.016,5.437,1.208,8.16c0,0-2.342-3.417-0.021-5.111
		c0,0-0.558,5.194,3.195,5.6L89.205,129.226z"/>
	<path fill="#009447" d="M171.933,120.641c0,0,10.918-4.797,8.501-17.915c0,0,5.204,5.915,2.097,13.182c0,0,7.632-5.48,1.125-13.814
		c0,0,7.574,3.915,4.027,13.636c0,0,1.611-3.912,5.408-3.567c0,0-6.444,5.754-3.222,12.082c0,0,2.072-1.373,1.035-4.487
		c0,0,4.373,5.178,0.115,9.55c0,0,2.071-1.841,5.178-0.92c0,0-5.82,1.54-3.403,7.616L171.933,120.641z"/>
	<polygon fill="#562F15" points="177.031,132.607 179.716,134.81 181.289,136.635 182.324,134.621 184.971,134.621 178.757,126.854 
			"/>
	<polygon fill="#562F15" points="135.033,137.584 137.935,136.52 138.6,138.936 141.937,136.52 143.548,125.474 136.874,119.721 	
		"/>
	<polygon fill="#85491F" points="98.146,59.023 97.686,85.373 98.146,100.446 94.924,116.21 86.409,125.069 80.081,135.08 
		85.19,136.768 94.05,136.538 105.897,135.699 110.688,134.159 114.485,138.071 121.849,140.833 133.538,143.309 138.658,141.353 
		137.267,136.115 140.374,129.212 138.648,124.149 141.64,129.212 140.604,135.655 140.949,139.223 143.941,139.337 
		146.933,136.921 165.274,138.033 174.778,135.425 178.69,138.071 180.071,135.771 178.115,130.478 187.32,137.036 198.366,136.461 
		198.366,133.584 188.931,126.91 179.496,110.687 177.885,77.203 177.971,59.166 177.971,59.166 	"/>
	<polygon opacity="0.05" fill="#010101" points="133.844,67.072 132.635,93.221 131.39,95.136 132.635,106.642 132.465,143.081 
		121.849,140.833 114.485,138.071 110.688,134.159 105.897,135.699 94.05,136.538 85.19,136.768 80.081,135.08 86.409,125.069 
		94.924,116.21 98.146,100.446 97.686,85.373 98.095,59.166 	"/>
	<g>
		<ellipse fill="#935327" cx="138.033" cy="59.166" rx="39.938" ry="7.906"/>
		<ellipse fill="#EEC99A" cx="137.935" cy="59.167" rx="37.491" ry="7.038"/>
		<ellipse fill="#D2AA7E" cx="138.033" cy="59.166" rx="9.446" ry="1.26"/>
		<polygon fill="#935327" points="166.899,63.635 163.68,62.599 164.365,64.597 		"/>
		<path fill="#D2AA7E" d="M121.392,59.166c0-1.387,8.461-2.215,16.641-2.215c8.18,0,16.641,0.828,16.641,2.215
			s-8.461,2.216-16.641,2.216C129.853,61.382,121.392,60.553,121.392,59.166z M154.086,59.166c0-0.943-6.451-1.954-16.054-1.954
			s-16.054,1.011-16.054,1.954c0,0.944,6.451,1.955,16.054,1.955S154.086,60.11,154.086,59.166z"/>
		<path fill="#D2AA7E" d="M113.371,59.166c0-1.952,10.79-3.48,24.564-3.48c13.774,0,24.564,1.528,24.564,3.48
			s-10.79,3.481-24.564,3.481C124.16,62.647,113.371,61.118,113.371,59.166z M161.912,59.166c0-1.745-10.98-3.22-23.977-3.22
			s-23.978,1.475-23.978,3.22c0,1.746,10.98,3.221,23.978,3.221S161.912,60.912,161.912,59.166z"/>
		<path fill="#D2AA7E" d="M105.339,59.166c0-2.967,14.667-5.381,32.694-5.381c18.027,0,32.693,2.414,32.693,5.381
			c0,2.968-14.667,5.382-32.693,5.382C120.005,64.548,105.339,62.134,105.339,59.166z M170.14,59.166
			c0-2.823-14.403-5.12-32.106-5.12s-32.107,2.297-32.107,5.12c0,2.824,14.403,5.121,32.107,5.121S170.14,61.99,170.14,59.166z"/>
		<polygon fill="#935327" points="154.507,52.344 154.229,53.367 151.31,53.901 152.074,54.358 149.363,55.498 152.769,54.407 
			152.522,53.921 155.271,53.514 156.105,52.631 		"/>
		<polygon fill="#935327" points="111.701,56.604 107.679,55.01 103.38,55.995 		"/>
	</g>
	<polygon fill="#935327" points="126.925,52.129 128.766,50 130.089,47.124 130.683,40.065 132.753,35.386 133.444,41.139 
		135.983,45.588 136.081,48.427 138.43,51.878 	"/>
	<polygon fill="#935327" points="137.731,51.878 138.115,49.653 138.652,46.739 139.342,44.668 140.186,46.509 140.57,49.193 
		142.334,51.878 	"/>
	<polygon opacity="0.08" fill="#010101" points="124.729,66.624 125.253,88.313 125.945,66.738 	"/>
	<polygon opacity="0.08" fill="#010101" points="104.281,63.598 104.648,74.772 104.893,63.787 	"/>
	<polygon opacity="0.1" fill="#010101" points="152.734,66.692 153.366,74.807 153.366,66.624 	"/>
	<polygon opacity="0.1" fill="#010101" points="173.018,63.056 173.47,83.909 173.923,62.647 	"/>
	<polygon opacity="0.1" fill="#010101" points="163.108,83.13 163.108,118.109 163.68,100.62 	"/>
	<polygon opacity="0.1" fill="#010101" points="143.548,76.571 143.548,93.831 144.286,83.706 	"/>
	<polygon opacity="0.08" fill="#010101" points="103.011,114.22 103.011,131.479 103.75,121.354 	"/>
	<polygon opacity="0.1" fill="#010101" points="151.733,97.57 151.733,131.479 152.472,111.586 	"/>
	<polygon opacity="0.1" fill="#010101" points="175.057,103.052 175.057,130.896 175.795,114.561 	"/>
	<polygon opacity="0.08" fill="#010101" points="128.217,104.762 128.217,137.584 128.956,118.329 	"/>
	<polygon opacity="0.08" fill="#010101" points="114.552,83.13 114.552,112.011 115.473,99.929 	"/>
	<path fill="#009447" d="M99.596,137.659c0,0,2.531-4.026-3.452-7.019c0,0,4.948-0.92,6.559,3.51c0,0,1.151-7.767-5.523-8.228
		c0,0,7.296-1.38,7.445,6.444c0,0,0.1-4.718,3.346-4.603c0,0-3.427,2.761-1.011,4.947c0,0,2.166-4.33-1.966-6.883
		c0,0,7.189-0.101,4.888,6.918c0,0,0.914-4.829,4.788-4.753c0,0-5.408,3.068-3.222,7.595c0,0-0.218-4.138,2.646-4.373
		c0,0-3.183,4.143-0.191,6.443H99.596z"/>
	<path fill="#009447" d="M146.924,138.685c0,0,2.531-4.027-3.452-7.019c0,0,4.948-0.921,6.559,3.509c0,0,1.151-7.767-5.523-8.227
		c0,0,7.295-1.381,7.445,6.443c0,0,0.1-4.717,3.347-4.603c0,0-3.427,2.762-1.011,4.948c0,0,2.166-4.33-1.966-6.883
		c0,0,7.189-0.102,4.888,6.918c0,0,0.914-4.83,4.788-4.753c0,0-5.408,3.068-3.222,7.594c0,0-0.218-4.137,2.646-4.372
		c0,0-3.184,4.143-0.192,6.443H146.924z"/>
</g>
</svg>
