<?xml version="1.0" encoding="utf-8"?>
<!-- Generator: Adobe Illustrator 19.1.0, SVG Export Plug-In . SVG Version: 6.00 Build 0)  -->
<svg version="1.1" id="Calque_1" xmlns="http://www.w3.org/2000/svg" xmlns:xlink="http://www.w3.org/1999/xlink" x="0px" y="0px"
	 viewBox="0 0 1279.7 233" style="enable-background:new 0 0 1279.7 233;" xml:space="preserve">
<style type="text/css">
	.st0{fill:#FFFFFF;}
</style>
<circle class="st0" cx="34.1" cy="8.8" r="8.8"/>
<rect x="32.1" y="7.9" class="st0" width="3.9" height="225.1"/>
<circle class="st0" cx="426.8" cy="8.8" r="8.8"/>
<rect x="424.8" y="7.9" class="st0" width="3.9" height="225.1"/>
<circle class="st0" cx="853.2" cy="8.8" r="8.8"/>
<rect x="851.3" y="7.9" class="st0" width="3.9" height="225.1"/>
<circle class="st0" cx="1245.5" cy="8.8" r="8.8"/>
<rect x="1243.6" y="7.9" class="st0" width="3.9" height="225.1"/>
</svg>
