<?xml version="1.0" encoding="utf-8"?>
<!-- Generator: Adobe Illustrator 16.0.0, SVG Export Plug-In . SVG Version: 6.00 Build 0)  -->
<!DOCTYPE svg PUBLIC "-//W3C//DTD SVG 1.1//EN" "http://www.w3.org/Graphics/SVG/1.1/DTD/svg11.dtd">
<svg version="1.1" id="Layer_1" xmlns="http://www.w3.org/2000/svg" xmlns:xlink="http://www.w3.org/1999/xlink" x="0px" y="0px"
	 width="92.667px" height="90.25px" viewBox="0 0 92.667 90.25" enable-background="new 0 0 92.667 90.25" xml:space="preserve">
<g>
	<circle fill="#4BB854" stroke="#FFFFFF" stroke-width="3" stroke-miterlimit="10" cx="-390.541" cy="45.125" r="43.401"/>
	<polygon fill="#FFFFFF" points="-412.9,39.85 -411.852,39.325 -409.82,39.587 -407.591,39.325 -407.591,37.687 -408.64,36.113 
		-408.902,34.344 -410.344,33.885 -408.509,31.264 -408.116,31.919 -405.691,31.264 -403.79,29.166 -402.61,27.2 -401.693,27.2 
		-400.382,24.774 -400.382,23.268 -398.875,22.088 -400.447,20.908 -401.234,20.056 -401.103,18.155 -401.693,17.237 
		-400.841,16.582 -398.875,17.565 -397.433,16.976 -395.729,16.582 -393.894,15.402 -392.976,16.845 -391.6,17.894 -392.189,19.4 
		-391.01,20.188 -390.682,21.367 -392.845,21.498 -392.255,24.251 -391.403,24.186 -390.682,25.233 -387.798,26.741 
		-389.174,27.527 -389.568,29.887 -387.798,30.87 -385.045,32.05 -381.572,32.312 -380.458,33.36 -378.557,33.885 -375.87,34.868 
		-374.1,34.737 -373.707,31.723 -372.593,31.395 -372.134,33.36 -369.185,33.95 -365.908,33.688 -366.563,32.312 -364.269,30.542 
		-360.992,28.576 -359.288,29.035 -358.042,28.183 -357.125,29.69 -357.125,30.477 -355.814,30.542 -356.208,33.099 
		-357.781,33.099 -360.336,34.605 -361.058,37.293 -361.975,40.111 -363.679,39.652 -363.679,41.619 -364.138,43.585 
		-364.99,43.585 -365.58,40.57 -366.891,41.619 -367.874,40.308 -366.235,39.325 -365.646,37.621 -370.364,37.031 -370.626,35.262 
		-372.92,34.803 -374.035,36.048 -371.872,37.031 -373.772,37.948 -372.724,39.652 -372.199,43.585 -372.199,44.896 
		-373.576,44.503 -375.542,44.896 -376.132,46.469 -377.967,48.436 -380.392,50.139 -383.407,52.564 -385.308,54.137 
		-385.242,55.383 -386.618,55.383 -387.667,56.038 -389.24,56.038 -389.568,58.79 -389.174,61.084 -389.633,63.968 -389.896,66.655 
		-389.896,67.835 -391.665,69.67 -394.024,71.768 -395.794,71.768 -396.777,68.818 -398.743,64.689 -400.251,60.953 
		-401.168,58.332 -402.61,55.841 -403.462,51.843 -404.38,48.436 -403.528,46.6 -404.38,45.289 -404.445,43.126 -405.56,45.683 
		-407.854,46.6 -409.951,45.158 -411.458,43.585 -409.099,43.126 -408.771,41.553 -410.868,42.077 	"/>
</g>
<g>
	<circle fill="#4BB854" stroke="#FFFFFF" stroke-width="3" stroke-miterlimit="10" cx="45.539" cy="45.125" r="43.401"/>
	<path fill="#FFFFFF" d="M23.352,44.688c-0.281,0.192-0.352,0.577-0.157,0.857c0,0,0,0,2.858,4.154
		c0.169,0.245,0.561,0.362,0.857,0.158c1.34-0.924,1.34-0.924,1.34-0.924l-3.559-5.168L23.352,44.688z M29.573,48.682l2.921,5.363
		h10.45c0,0,0,0,2.892-1.993c0.326-0.225,0.498-0.631,0.027-0.995c-9.378-7.249-9.378-7.249-9.378-7.249s0,0-4.12-5.985
		c-0.231-0.336-0.572-0.355-0.858-0.158c-5.95,4.097-5.95,4.097-5.95,4.097c-0.283,0.193-0.353,0.577-0.159,0.857L29.573,48.682z
		 M68.034,21.526c-0.282-1.937-1.125-3.095-2.253-3.095c-0.199,0-0.402,0.037-0.604,0.111c-5.697,2.069-16.869,8.96-21.309,12.02
		L33.69,37.57l3.56,5.17l3.472-2.392c0.885-0.61,1.455-1.357,1.913-1.959c0.276-0.362,0.516-0.675,0.754-0.873
		c4.506-3.744,19.528-10.186,23.209-11.282C68.088,25.788,68.275,23.176,68.034,21.526z M57.072,57.859h-5.037v-2.582H30.639v9.636
		c0,1.507-1.329,1.624-1.736,1.624l-0.632-0.016v4.327h6.844c1.152,0,2.175-0.564,2.809-1.428c0.564,0.883,1.507,1.428,2.639,1.428
		h13.84v-4.313H53.77c-0.407,0-1.735-0.117-1.735-1.624v-1.259L57.072,57.859z"/>
</g>
<g>
	<circle fill="#4BB854" stroke="#FFFFFF" stroke-width="3" stroke-miterlimit="10" cx="468.413" cy="45.125" r="43.401"/>
	<g>
		<rect x="474.784" y="56.453" fill="#FFFFFF" width="3.277" height="6.774"/>
		<rect x="481.885" y="56.453" fill="#FFFFFF" width="3.277" height="6.774"/>
		<rect x="489.096" y="56.453" fill="#FFFFFF" width="3.277" height="6.774"/>
		<polygon fill="#FFFFFF" points="476.75,42.578 479.045,42.578 474.892,33.729 476.531,33.729 473.144,26.518 474.456,26.518 
			469.211,15.593 464.077,26.518 465.387,26.518 462,33.729 463.639,33.729 459.488,42.578 461.782,42.578 457.958,51.209 
			467.682,51.209 467.682,63.228 470.85,63.228 470.85,51.209 480.574,51.209 		"/>
		<polygon fill="#FFFFFF" points="469.648,42.578 471.943,42.578 467.791,33.729 469.43,33.729 465.934,26.518 467.354,26.518 
			462.11,15.593 456.866,26.518 458.286,26.518 454.899,33.729 456.538,33.729 452.386,42.578 454.571,42.578 450.748,51.209 
			460.471,51.209 460.471,63.228 463.749,63.228 463.749,51.209 473.472,51.209 		"/>
		<polygon fill="#FFFFFF" points="462.437,42.578 464.732,42.578 460.581,33.729 462.219,33.729 458.833,26.518 460.252,26.518 
			455.008,15.593 449.764,26.518 451.184,26.518 447.688,33.729 449.327,33.729 445.175,42.578 447.47,42.578 443.646,51.209 
			453.37,51.209 453.37,63.228 456.647,63.228 456.647,51.209 466.261,51.209 		"/>
	</g>
</g>
</svg>
