<?xml version="1.0" encoding="utf-8"?>
<!-- Generator: Adobe Illustrator 16.0.0, SVG Export Plug-In . SVG Version: 6.00 Build 0)  -->
<!DOCTYPE svg PUBLIC "-//W3C//DTD SVG 1.1//EN" "http://www.w3.org/Graphics/SVG/1.1/DTD/svg11.dtd">
<svg version="1.1" id="Layer_1" xmlns="http://www.w3.org/2000/svg" xmlns:xlink="http://www.w3.org/1999/xlink" x="0px" y="0px"
	 width="91.917px" height="90.25px" viewBox="0 0 91.917 90.25" enable-background="new 0 0 91.917 90.25" xml:space="preserve">
<g>
	<circle fill="#4BB854" stroke="#FFFFFF" stroke-width="3" stroke-miterlimit="10" cx="45.736" cy="45.322" r="43.401"/>
	<polygon fill="#FFFFFF" points="23.376,40.047 24.425,39.522 26.457,39.784 28.686,39.522 28.686,37.884 27.637,36.311 
		27.375,34.541 25.933,34.082 27.768,31.461 28.161,32.116 30.586,31.461 32.487,29.363 33.667,27.397 34.584,27.397 35.895,24.972 
		35.895,23.465 37.402,22.285 35.83,21.105 35.043,20.253 35.174,18.353 34.584,17.435 35.436,16.779 37.402,17.763 38.844,17.173 
		40.548,16.779 42.383,15.6 43.301,17.042 44.677,18.091 44.087,19.598 45.267,20.385 45.595,21.564 43.432,21.695 44.022,24.448 
		44.874,24.383 45.595,25.431 48.479,26.938 47.103,27.725 46.709,30.084 48.479,31.067 51.231,32.247 54.705,32.51 55.819,33.558 
		57.72,34.082 60.407,35.065 62.177,34.935 62.57,31.92 63.684,31.592 64.143,33.558 67.092,34.147 70.369,33.886 69.714,32.51 
		72.008,30.739 75.285,28.773 76.989,29.232 78.234,28.38 79.152,29.888 79.152,30.674 80.462,30.739 80.069,33.296 78.496,33.296 
		75.94,34.803 75.219,37.49 74.302,40.309 72.598,39.85 72.598,41.816 72.139,43.782 71.287,43.782 70.697,40.768 69.386,41.816 
		68.403,40.505 70.042,39.522 70.631,37.818 65.913,37.229 65.65,35.459 63.356,35 62.242,36.245 64.405,37.229 62.504,38.146 
		63.553,39.85 64.078,43.782 64.078,45.093 62.701,44.7 60.735,45.093 60.145,46.666 58.31,48.633 55.885,50.336 52.87,52.762 
		50.969,54.334 51.035,55.58 49.659,55.58 48.61,56.235 47.037,56.235 46.709,58.987 47.103,61.281 46.644,64.165 46.381,66.853 
		46.381,68.032 44.612,69.867 42.252,71.965 40.483,71.965 39.5,69.016 37.534,64.887 36.026,61.15 35.108,58.529 33.667,56.038 
		32.814,52.04 31.897,48.633 32.749,46.797 31.897,45.486 31.832,43.323 30.717,45.88 28.423,46.797 26.326,45.355 24.818,43.782 
		27.178,43.323 27.506,41.75 25.409,42.274 	"/>
</g>
<g>
	<circle fill="#4BB854" stroke="#FFFFFF" stroke-width="3" stroke-miterlimit="10" cx="481.815" cy="45.322" r="43.401"/>
	<path fill="#FFFFFF" d="M459.628,44.886c-0.281,0.192-0.352,0.577-0.157,0.857c0,0,0,0,2.858,4.154
		c0.169,0.245,0.561,0.362,0.857,0.158c1.34-0.924,1.34-0.924,1.34-0.924l-3.559-5.168L459.628,44.886z M465.85,48.879l2.921,5.363
		h10.45c0,0,0,0,2.892-1.993c0.326-0.225,0.498-0.631,0.027-0.995c-9.378-7.249-9.378-7.249-9.378-7.249s0,0-4.12-5.985
		c-0.231-0.336-0.572-0.355-0.858-0.158c-5.95,4.097-5.95,4.097-5.95,4.097c-0.283,0.193-0.353,0.577-0.159,0.857L465.85,48.879z
		 M504.311,21.724c-0.282-1.937-1.125-3.095-2.253-3.095c-0.199,0-0.402,0.037-0.604,0.111c-5.697,2.069-16.869,8.96-21.309,12.02
		l-10.178,7.008l3.56,5.17l3.472-2.392c0.885-0.61,1.455-1.357,1.913-1.959c0.276-0.362,0.516-0.675,0.754-0.873
		c4.506-3.744,19.528-10.186,23.209-11.282C504.365,25.985,504.552,23.373,504.311,21.724z M493.349,58.057h-5.037v-2.582h-21.396
		v9.636c0,1.507-1.329,1.624-1.736,1.624l-0.632-0.016v4.327h6.844c1.152,0,2.175-0.564,2.809-1.428
		c0.564,0.883,1.507,1.428,2.639,1.428h13.84v-4.313h-0.632c-0.407,0-1.735-0.117-1.735-1.624V63.85L493.349,58.057z"/>
</g>
<g>
	<circle fill="#4BB854" stroke="#FFFFFF" stroke-width="3" stroke-miterlimit="10" cx="904.69" cy="45.322" r="43.401"/>
	<g>
		<rect x="911.061" y="56.65" fill="#FFFFFF" width="3.277" height="6.774"/>
		<rect x="918.162" y="56.65" fill="#FFFFFF" width="3.277" height="6.774"/>
		<rect x="925.372" y="56.65" fill="#FFFFFF" width="3.278" height="6.774"/>
		<polygon fill="#FFFFFF" points="913.026,42.775 915.321,42.775 911.169,33.926 912.809,33.926 909.421,26.715 910.732,26.715 
			905.488,15.79 900.354,26.715 901.664,26.715 898.277,33.926 899.916,33.926 895.765,42.775 898.059,42.775 894.235,51.406 
			903.959,51.406 903.959,63.425 907.127,63.425 907.127,51.406 916.851,51.406 		"/>
		<polygon fill="#FFFFFF" points="905.925,42.775 908.22,42.775 904.067,33.926 905.707,33.926 902.211,26.715 903.631,26.715 
			898.387,15.79 893.143,26.715 894.562,26.715 891.176,33.926 892.814,33.926 888.663,42.775 890.848,42.775 887.024,51.406 
			896.748,51.406 896.748,63.425 900.025,63.425 900.025,51.406 909.749,51.406 		"/>
		<polygon fill="#FFFFFF" points="898.714,42.775 901.009,42.775 896.857,33.926 898.496,33.926 895.109,26.715 896.529,26.715 
			891.285,15.79 886.041,26.715 887.461,26.715 883.965,33.926 885.604,33.926 881.452,42.775 883.747,42.775 879.923,51.406 
			889.646,51.406 889.646,63.425 892.924,63.425 892.924,51.406 902.538,51.406 		"/>
	</g>
</g>
</svg>
