<?xml version="1.0" encoding="utf-8"?>
<!-- Generator: Adobe Illustrator 19.1.0, SVG Export Plug-In . SVG Version: 6.00 Build 0)  -->
<svg version="1.1" id="Calque_1" xmlns="http://www.w3.org/2000/svg" xmlns:xlink="http://www.w3.org/1999/xlink" x="0px" y="0px"
	 viewBox="0 0 48.8 48.5" style="enable-background:new 0 0 48.8 48.5;" xml:space="preserve">
<style type="text/css">
	.st0{fill:#38ACAE;stroke:#FFFFFF;stroke-width:3;stroke-miterlimit:10;}
	.st1{fill:#FFFFFF;}
</style>
<circle class="st0" cx="24.6" cy="24.2" r="22.4"/>
<g>
	<path class="st1" d="M39.1,26.3c-0.1-1.5-0.1-2.9-0.2-4.4c-0.1-1.7,0.5-4.4-0.6-5.9c-0.9-1.1-2.9-0.5-4.1-0.6
		c-2-0.2-4.4,0.2-6.5,0.2c-3.1,0-6.7-0.7-9.7,0c-1.5,0.3-2.8,1.2-4.4,1.3c-0.5,0-1,0.1-1.5,0.1c-0.6,0-0.3-0.6-0.9-0.7
		c-0.8,0-1.1,0.3-1.4,1.2C9,17,8.5,17.9,9.2,18.2C9,19.1,9,20,8.5,20.9c-0.3,0.7-1.1,1.2-0.6,2c0.2,0.4,1.5,1.1,1.8,0.2
		c1.7-0.6,3.1-2,4.5,0c1,1.4,1.5,4.1,3.9,3.5c-0.2,2,0.7,4.2-0.7,5.9c-0.3,0.4,1.3,0.9,1.6-0.5c0.1-0.7-0.1-1.5,0.1-2.2
		c0.2-0.5,0.6-1.1,0.6-1.6c0.1,1,1.6,3.8,0.5,4.7c0.7,1,1.3,0.4,1.2-0.5c-0.1-1-0.2-2.2,0-3.2c0.1-1.2-0.6-4.5,1.2-3.7
		c1.6,0.7,4.1,1.2,5.8,0.9c0.8-0.2,1.7-0.9,2.5-0.7c0.5,0.1,2.1,0.8,2.3,1.3c1.1,1.8-0.9,4.2-1.7,5.6c-0.4,0.7-0.2,0.8,0.6,0.8
		c0.6,0,1.4-1.7,1.7-2.2c0.5-0.8,0.9-1.6,1.6-2.4c0.8-0.9,0-2.3,0.6-3.3c0.5,1.2,1.2,2.4,1.8,3.6c0.6,1.3-0.1,2.6-0.2,3.8
		c0,0.2,1.1,0.1,1.2,0.1c0.5-0.2,0.3-1.3,0.3-1.8C39,30,39.7,27.5,39.1,26.3z M38.5,25.4c-0.3-0.5-1.3-6.1-0.5-6.3
		C39,20.2,38.6,24,38.5,25.4z"/>
	<path class="st1" d="M31.3,33.1c-0.1,0.1-0.3,0.2-0.3,0.4c0,0,2.1,0.8,1.9-0.9"/>
	<path class="st1" d="M37.6,33c-0.6,0.7,0.5,0.9,1.1,0.6c0.8-0.3,0.1-1.7,0.1-2.3C38.9,31.5,37.8,32.7,37.6,33z"/>
	<path class="st1" d="M20.2,32.9c-0.1,0.1-0.3,0.3-0.4,0.5c0.1,0.4,2,0.2,1.6-0.6"/>
</g>
</svg>
