<?xml version="1.0" encoding="utf-8"?>
<!-- Generator: Adobe Illustrator 16.0.0, SVG Export Plug-In . SVG Version: 6.00 Build 0)  -->
<!DOCTYPE svg PUBLIC "-//W3C//DTD SVG 1.1//EN" "http://www.w3.org/Graphics/SVG/1.1/DTD/svg11.dtd">
<svg version="1.1" id="Layer_1" xmlns="http://www.w3.org/2000/svg" xmlns:xlink="http://www.w3.org/1999/xlink" x="0px" y="0px"
	 width="109.768px" height="275.793px" viewBox="0 0 109.768 275.793" enable-background="new 0 0 109.768 275.793"
	 xml:space="preserve">
<line fill="none" stroke="#D9C9A8" stroke-width="5.6693" stroke-miterlimit="10" x1="55" y1="-6.281" x2="55" y2="278.803"/>
<g>
	<g>
		<path fill="#FFFFFF" d="M54.917,207.737c29.651,0,53.686-24.037,53.686-53.687c0-29.647-24.034-53.685-53.686-53.685
			c-29.649,0-53.685,24.037-53.685,53.685C1.232,183.7,25.268,207.737,54.917,207.737"/>
		<path fill="#D9C9A8" d="M85.624,184.758c-7.867,7.861-18.71,12.717-30.705,12.72c-11.999-0.003-22.841-4.858-30.706-12.72
			c-7.861-7.866-12.718-18.708-12.721-30.704c0.003-11.998,4.859-22.841,12.721-30.708c7.865-7.86,18.707-12.716,30.706-12.716
			c11.995,0,22.838,4.856,30.705,12.716c7.859,7.867,12.716,18.709,12.719,30.708C98.34,166.05,93.483,176.892,85.624,184.758
			 M88.691,120.278c-8.636-8.64-20.592-13.988-33.772-13.988c-13.184,0-25.136,5.348-33.774,13.988
			c-8.641,8.639-13.989,20.592-13.989,33.775c0,13.181,5.349,25.136,13.989,33.771c8.639,8.642,20.591,13.989,33.774,13.989
			c13.181,0,25.137-5.348,33.772-13.989c8.64-8.636,13.988-20.591,13.988-33.771C102.68,140.87,97.331,128.917,88.691,120.278"/>
	</g>
</g>
<g>
	<path fill="#C6AF85" d="M65.152,140.784c-0.542,0.162-1.083,0.324-1.679,0.433h6.985v-3.087c-0.271,0.271-0.541,0.434-0.758,0.65
		C68.564,139.538,67.048,140.188,65.152,140.784z"/>
	<path fill="#C6AF85" d="M51.072,142.517h-1.68l0,0c-4.657-0.162-8.989-0.758-12.347-1.732c-1.896-0.596-3.412-1.246-4.495-2.004
		c-0.271-0.162-0.541-0.379-0.758-0.65v34.551c0,3.195,8.664,5.741,19.333,5.741h29.136v-35.905h-9.803H51.072z"/>
	<path fill="#C6AF85" d="M51.072,129.682c-10.669,0-19.334,2.599-19.334,5.794s8.665,5.74,19.334,5.74
		c10.668,0,19.333-2.599,19.333-5.74C70.459,132.281,61.795,129.682,51.072,129.682z M51.072,133.419
		c3.845,0,6.932,0.92,6.932,2.058c0,1.138-3.087,2.058-6.932,2.058c-3.846,0-6.933-0.92-6.933-2.058
		C44.14,134.339,47.281,133.419,51.072,133.419z"/>
</g>
</svg>
