<?xml version="1.0" encoding="utf-8"?>
<!-- Generator: Adobe Illustrator 19.1.0, SVG Export Plug-In . SVG Version: 6.00 Build 0)  -->
<svg version="1.1" id="Calque_1" xmlns="http://www.w3.org/2000/svg" xmlns:xlink="http://www.w3.org/1999/xlink" x="0px" y="0px"
	 viewBox="0 0 77.9 77.9" style="enable-background:new 0 0 77.9 77.9;" xml:space="preserve">
<style type="text/css">
	.st0{fill:#FFFFFF;}
	.st1{fill:#019444;}
</style>
<g>
	<circle class="st0" cx="39" cy="38.3" r="37"/>
	<path class="st1" d="M39,0C17.4,0,0,17.4,0,39s17.4,39,39,39s39-17.4,39-39S60.5,0,39,0z M39,6.3c8.6,0,16.4,3.4,22.2,8.8
		L49.5,34.8L33,6.9C35,6.5,36.9,6.3,39,6.3z M28.9,8L40,26.7H8.7C12.3,17.8,19.7,11,28.9,8z M6.3,39c0-2.8,0.5-5.5,1.2-8.2H31
		l-17.1,29C9.2,54.1,6.3,46.9,6.3,39z M39,71.7c-8.6,0-16.3-3.4-22.1-8.8L28.6,43L45.2,71C43.2,71.4,41.1,71.7,39,71.7z M49.2,69.9
		l-11-18.6h31C65.7,60.1,58.3,66.8,49.2,69.9z M47,47.1l17-28.9c4.7,5.7,7.6,12.8,7.6,20.7c0,2.8-0.5,5.5-1.2,8.2H47z"/>
</g>
</svg>
