<?xml version="1.0" encoding="utf-8"?>
<!-- Generator: Adobe Illustrator 16.0.0, SVG Export Plug-In . SVG Version: 6.00 Build 0)  -->
<!DOCTYPE svg PUBLIC "-//W3C//DTD SVG 1.1//EN" "http://www.w3.org/Graphics/SVG/1.1/DTD/svg11.dtd">
<svg version="1.1" id="Layer_1" xmlns="http://www.w3.org/2000/svg" xmlns:xlink="http://www.w3.org/1999/xlink" x="0px" y="0px"
	 width="89.252px" height="42.962px" viewBox="0 0 89.252 42.962" enable-background="new 0 0 89.252 42.962" xml:space="preserve">
<g>
	<g>
		<g>
			<polygon fill="#8D633A" points="44.626,29.43 38.442,40.602 32.259,29.43 38.442,18.259 			"/>
			<polygon fill="#754D25" points="44.626,7.087 50.81,18.259 44.626,29.43 38.442,18.259 			"/>
			<polygon fill="#754D25" points="32.259,7.087 38.442,18.259 32.259,29.43 26.075,18.259 			"/>
			<polygon fill="#8D633A" points="38.442,18.259 32.259,7.087 36.008,0.312 40.876,0.312 44.626,7.087 			"/>
			<polygon fill="#8D633A" points="50.81,18.259 44.626,7.087 48.376,0.312 53.243,0.312 56.993,7.087 			"/>
			<polygon fill="#8D633A" points="69.36,29.43 63.177,40.602 56.993,29.43 63.177,18.259 			"/>
			<polygon fill="#8D633A" points="56.993,29.43 50.81,40.602 44.626,29.43 50.81,18.259 			"/>
			<polygon fill="#8D633A" points="52.116,42.962 49.503,42.962 50.81,40.602 			"/>
			<polygon fill="#754D25" points="56.993,7.087 63.177,18.259 56.993,29.43 50.81,18.259 			"/>
			<polygon fill="#754D25" points="69.36,7.087 75.545,18.259 69.36,29.43 63.177,18.259 			"/>
			<polygon fill="#8D633A" points="63.177,18.259 56.993,7.087 60.743,0.312 65.611,0.312 69.36,7.087 			"/>
			<polygon fill="#754D25" points="56.993,29.43 63.177,40.602 61.87,42.962 52.116,42.962 50.81,40.602 			"/>
			<path fill="#8D633A" d="M5.505,33.077c-1.537-3.006-2.421-6.516-2.421-10.266v-2.097l4.632,8.369L5.505,33.077z"/>
			<polygon fill="#8D633A" points="26.075,18.259 19.891,7.087 23.641,0.312 28.509,0.312 32.259,7.087 			"/>
			<path fill="#754D25" d="M19.891,29.43l6.185,11.172l-1.307,2.36h-4.32c-1.979,0-3.882-0.386-5.654-1.094l-0.895-1.614
				L19.891,29.43z"/>
			<path fill="#754D25" d="M13.899,40.254l-0.531,0.961c-3.29-1.707-6.038-4.567-7.863-8.139l2.211-3.994L13.899,40.254z"/>
			<path fill="#754D25" d="M14.794,41.869c-0.485-0.194-0.961-0.412-1.426-0.653l0.531-0.961L14.794,41.869z"/>
			<polygon fill="#8D633A" points="27.381,42.962 24.769,42.962 26.075,40.602 			"/>
			<polygon fill="#8D633A" points="64.483,42.962 61.87,42.962 63.177,40.602 			"/>
			<polygon fill="#8D633A" points="16.142,0.312 19.891,7.087 13.707,18.259 7.523,7.087 11.272,0.312 			"/>
			<polygon fill="#8D633A" points="73.11,0.312 77.979,0.312 81.729,7.087 75.545,18.259 69.36,7.087 			"/>
			<polygon fill="#8D633A" points="81.535,29.083 75.352,40.254 69.36,29.43 75.545,18.259 			"/>
			<polygon fill="#754D25" points="75.545,18.259 81.729,7.087 86.167,15.107 86.167,20.714 81.535,29.083 			"/>
			<polygon fill="#754D25" points="53.243,0.312 60.743,0.312 56.993,7.087 			"/>
			<polygon fill="#754D25" points="44.626,29.43 50.81,40.602 49.503,42.962 39.749,42.962 38.442,40.602 			"/>
			<polygon fill="#754D25" points="65.611,0.312 73.11,0.312 69.36,7.087 			"/>
			<polygon fill="#754D25" points="40.876,0.312 48.376,0.312 44.626,7.087 			"/>
			<polygon fill="#754D25" points="85.478,0.312 81.729,7.087 77.979,0.312 			"/>
			<path fill="#754D25" d="M81.535,29.083l2.212,3.994c-1.826,3.571-4.573,6.432-7.863,8.139l-0.532-0.961L81.535,29.083z"/>
			<path fill="#754D25" d="M75.884,41.215c-0.465,0.241-0.94,0.459-1.426,0.653l0.894-1.614L75.884,41.215z"/>
			<path fill="#754D25" d="M69.36,29.43l5.991,10.824l-0.894,1.614c-1.772,0.708-3.675,1.094-5.654,1.094h-4.32l-1.307-2.36
				L69.36,29.43z"/>
			<polygon fill="#8D633A" points="85.478,0.312 86.167,0.312 86.167,15.107 81.729,7.087 			"/>
			<path fill="#8D633A" d="M86.167,20.714v2.097c0,3.75-0.883,7.26-2.42,10.266l-2.212-3.994L86.167,20.714z"/>
			<polygon fill="#8D633A" points="32.259,29.43 26.075,40.602 19.891,29.43 26.075,18.259 			"/>
			<polygon fill="#754D25" points="26.075,18.259 19.891,29.43 13.707,18.259 19.891,7.087 			"/>
			<polygon fill="#8D633A" points="13.899,40.254 7.716,29.083 13.707,18.259 19.891,29.43 			"/>
			<polygon fill="#754D25" points="13.707,18.259 7.716,29.083 3.084,20.714 3.084,15.107 7.523,7.087 			"/>
			<polygon fill="#754D25" points="28.509,0.312 36.008,0.312 32.259,7.087 			"/>
			<polygon fill="#8D633A" points="39.749,42.962 37.136,42.962 38.442,40.602 			"/>
			<polygon fill="#754D25" points="32.259,29.43 38.442,40.602 37.136,42.962 27.381,42.962 26.075,40.602 			"/>
			<polygon fill="#754D25" points="16.142,0.312 23.641,0.312 19.891,7.087 			"/>
			<polygon fill="#754D25" points="7.523,7.087 3.773,0.312 11.272,0.312 			"/>
			<polygon fill="#8D633A" points="3.773,0.312 7.523,7.087 3.084,15.107 3.084,0.312 			"/>
		</g>
		<g>
			<g>
				<polygon fill="#D9C9A8" points="57.379,0 65.514,12.897 32.6,12.897 24.465,0 				"/>
				<polygon fill="#EEEACC" points="89.252,0 89.252,12.897 65.514,12.897 57.379,0 				"/>
				<polygon fill="#EEEACC" points="0,0 24.465,0 32.6,12.897 0,12.897 				"/>
			</g>
		</g>
	</g>
</g>
</svg>
