<?xml version="1.0" encoding="utf-8"?>
<!-- Generator: Adobe Illustrator 16.0.0, SVG Export Plug-In . SVG Version: 6.00 Build 0)  -->
<!DOCTYPE svg PUBLIC "-//W3C//DTD SVG 1.1//EN" "http://www.w3.org/Graphics/SVG/1.1/DTD/svg11.dtd">
<svg version="1.1" id="Layer_1" xmlns="http://www.w3.org/2000/svg" xmlns:xlink="http://www.w3.org/1999/xlink" x="0px" y="0px"
	 width="30.221px" height="30.22px" viewBox="0 0 30.221 30.22" enable-background="new 0 0 30.221 30.22" xml:space="preserve">
<g>
	<g>
		<circle fill="#754D25" cx="15.11" cy="15.11" r="15.11"/>
		<circle fill="#8D633A" cx="15.11" cy="15.11" r="11.97"/>
	</g>
	<g>
		<rect x="8.367" y="13.399" fill="#FFFFFF" width="13.46" height="2.326"/>
		<rect x="13.935" y="7.831" fill="#FFFFFF" width="2.325" height="13.461"/>
	</g>
</g>
</svg>
